{
"storeHouse": [
{"sourceName":"💚多多优选仓","sourceUrl":"https://gitlab.com/duomv/apps/-/raw/main/1.txt"},
{"sourceName":"💛多多公众仓","sourceUrl":"https://gitlab.com/duomv/apps/-/raw/main/2.txt"},
{"sourceName":"❤️多多聚合仓","sourceUrl":"https://gitlab.com/duomv/apps/-/raw/main/3.txt"},
{"sourceName":"🥕多多预备仓","sourceUrl":"https://gitlab.com/duomv/apps/-/raw/main/4.txt"}
]}
